Categories:Connectivity
License:Apache-2.0
Web Site:
Source Code:https://gitlab.hrz.tu-chemnitz.de/urz-anwendungen/TucWLAN
Issue Tracker:https://gitlab.hrz.tu-chemnitz.de/urz-anwendungen/TucWLAN/issues

Auto Name:TUC WLAN

Repo Type:git
Repo:https://gitlab.hrz.tu-chemnitz.de/urz-anwendungen/TucWLAN

Build:1.0.1,3
    commit=v1.0.1
    subdir=app
    gradle=yes

Build:1.0.3,5
    commit=1.0.3
    subdir=app
    gradle=yes

Build:1.1.0,6
    commit=v1.1.0
    subdir=app
    gradle=yes

Build:1.2.0,7
    commit=v1.2.0
    subdir=app
    gradle=yes

Build:1.2.1,8
    commit=v1.2.1
    subdir=app
    gradle=yes

Build:1.3.0,9
    commit=v1.3.0
    subdir=app
    gradle=yes

Build:1.3.1,10
    commit=v.1.3.1
    subdir=app
    gradle=yes

Build:1.3.2,11
    commit=v1.3.2
    subdir=app
    gradle=yes

Build:1.3.3,12
    commit=v1.3.3
    subdir=app
    gradle=yes

Build:1.3.4,13
    commit=v1.3.4
    subdir=app
    gradle=yes

Auto Update Mode:Version v%v
Update Check Mode:Tags
Current Version:1.3.4
Current Version Code:13
